-10.074479166666666
-2.067591145833333
-5.966770833333333
-4.686315104166667
-17.44240885416667
-10.7521484375
-10.830013020833333
-12.818619791666666
-5.888346354166667
-5.929934895833333
-7.3331510416666665
-7.979921875
-8.514869791666667
-8.528411458333334
-8.5587890625
-8.544609375
-8.544869791666667
-8.5548828125
-8.567213541666666
-8.588020833333333
-8.606953125
-8.605286458333333
-8.611145833333333
-8.600052083333333
-8.6047265625
-8.6153125
-8.634466145833333
-8.612408854166667
-8.6251953125
-8.6427734375
-8.6262109375
-8.573333333333334
-8.531497395833334
-8.536106770833333
-8.527473958333333
-8.523450520833334
-8.538059895833333
-8.511419270833333
-8.534453125
-8.549661458333333
-8.553125
-8.559752604166667
-8.541510416666666
-8.5415625
-8.532109375
-8.5474609375
-8.54765625
-8.516940104166666
-8.516614583333334
-8.520755208333334
-8.514557291666666
-8.515104166666667
-8.527408854166667
-8.545403645833334
-8.504934895833333
-8.460963541666667
-8.443046875
-8.43375
-8.4041015625
-8.390690104166667
-8.67328125
-8.5665625
-8.7271484375
-8.648776041666666
-8.650651041666666
-8.656393229166667
-8.6788671875
-8.6935546875
-8.652408854166667
-8.64078125
-8.6149609375
-8.651979166666667
-8.6280859375
-8.6428515625
-8.644869791666666
-8.669453125
-8.647161458333333
-8.6159375
-8.579427083333334
-8.607994791666666
-8.601484375
-8.635377604166667
-8.6598828125
-8.657994791666667
-8.669010416666667
-8.6820703125
-8.696796875
-8.685611979166667
-8.69703125
-8.706888020833333
-8.686015625
-8.681380208333334
-8.666744791666666
-8.664348958333333
-8.667747395833333
-8.691263020833333
-8.782135416666666
-8.775572916666667
-8.748723958333333
-8.77796875
-8.744375
-8.735026041666666
-8.717434895833334
-8.714205729166666
-8.709192708333333
-8.7260546875
-8.7238671875
-8.750950520833333
-8.7715625
-8.7683203125
-8.792044270833333
-8.788919270833333
-8.784427083333334
-8.7816796875
-8.780260416666666
-8.786197916666667
-8.793059895833334
-8.813138020833334
-8.767434895833333
-8.7296875
-8.7101953125
-8.725833333333334
-8.734752604166667
-8.737447916666667
-8.726106770833333
-8.7225390625
-8.7060546875
-8.704140625
-8.694375
-8.70734375
-8.7059375
-8.7072265625
-8.714283854166666
-8.7243359375
-8.717916666666667
-8.709440104166667
-8.724049479166666
-8.746197916666667
-8.749348958333334
-8.77734375
-8.791901041666666
-8.770859375
-8.7252734375
-8.714466145833333
-8.7434375
-8.778515625
-8.7851953125
-8.779466145833334
-8.800416666666667
-8.755794270833333
-8.743020833333333
-8.775013020833333
-8.776497395833333
-8.788372395833333
-8.8099609375
-8.824296875
-8.8190625
-8.811953125
-8.796393229166666
-8.780494791666667
-8.7878125
-8.8318359375
-8.854440104166667
-8.845416666666667
-8.790299479166666
-8.7523046875
-8.728216145833333
-8.7396484375
-8.797018229166667
-8.7799609375
-8.781028645833333
-8.782669270833333
-8.800234375
-8.803151041666666
-8.8270703125
-8.800677083333333
-8.793333333333333
-8.794544270833333
-8.806614583333333
-8.809986979166666
-8.811536458333334
-8.763658854166666
-8.727239583333333
-8.714947916666667
-8.7237109375
-8.71640625
-8.716575520833333
-8.732877604166667
-8.740885416666666
-8.755533854166666
-8.7639453125
-8.791627604166667
-8.789635416666666
-8.807408854166667
-8.836197916666666
-8.856458333333334
-8.880377604166666
-8.874713541666667
-8.875729166666666
-8.898919270833334
-8.900846354166667
-8.914830729166667
-8.848567708333333
-8.82578125
-8.832591145833334
-8.832291666666666
-8.843294270833333
-8.855950520833334
-8.86203125
-8.866549479166666
-8.8908203125
-8.897421875
-8.910716145833334
-8.897135416666666
-8.917265625
-8.8878125
-8.892135416666667
-8.8962109375
-8.917708333333334
-8.91921875
-8.8819921875
-8.81359375
-8.8294140625
-8.826979166666666
-8.826705729166667
-8.812239583333334
-8.794518229166666
-8.8060546875
-8.795520833333333
-8.7883984375
-8.788046875
-8.817578125
-8.839049479166667
-8.872473958333334
-8.868776041666667
-8.8740625
-8.874739583333334
-8.8784765625
-8.906171875
-8.905559895833333
-8.914856770833333
-8.925338541666667
-8.928528645833333
-8.894778645833334
-8.8340625
-8.794921875
-8.8073046875
-8.831848958333333
-8.813815104166666
-8.806796875
-8.811822916666667
-8.804388020833333
-8.810924479166667
-8.809244791666666
-8.835091145833333
-8.8429296875
-8.85140625
-8.846875
-8.85734375
-8.8240625
-8.827591145833333
-8.8426171875
-8.841744791666667
-8.873684895833334
-8.887604166666666
-8.902799479166667
-8.913684895833333
-8.9347265625
-8.929361979166666
-8.943528645833334
-8.839986979166667
-8.836432291666666
-8.834036458333333
-8.821875
-8.851106770833333
-8.850690104166667
-8.839270833333334
-8.839986979166667
-8.863125
-8.87828125
-8.891979166666667
-8.90796875
-8.920846354166667
-8.948411458333334
-8.923033854166667
-8.9155859375
-8.9594140625
-8.981731770833333
-9.004505208333333
-8.9912890625
-9.0053125
-9.021145833333334
-9.0247265625
-9.01375
-8.994140625
-8.9980078125
-8.932565104166667
-8.899986979166666
-8.939049479166666
-8.981341145833333
-9.014348958333333
-8.995091145833333
-9.031861979166667
-9.053619791666666
-9.045729166666666
-9.042291666666667
-9.011028645833333
-8.9805859375
-8.984049479166666
-9.012213541666666
-9.010208333333333
-9.0127734375
-9.019856770833334
-9.009322916666667
-9.032369791666667
-9.048997395833334
-9.05078125
-9.046197916666667
-9.0037890625
-8.971184895833334
-8.95578125
-8.9225
-8.871653645833334
-8.837408854166666
-8.794869791666667
-8.774778645833333
-8.757356770833333
-8.771354166666667
-8.781119791666667
-8.785
-8.776822916666667
-8.805559895833333
-8.795130208333333
-8.781458333333333
-8.775494791666667
-8.77515625
-8.825208333333334
-8.813541666666667
-8.8178515625
-8.80734375
-8.811822916666667
-8.798151041666667
-8.745169270833333
-8.687942708333333
-8.665807291666667
-8.6922265625
-8.713815104166667
-8.703971354166667
-8.697174479166666
-8.709375
-8.7303515625
-8.728776041666666
-8.751419270833333
-8.767083333333334
-8.819505208333334
-8.831341145833333
-8.818971354166667
-8.790768229166666
-8.76828125
-8.7105078125
-8.670598958333333
-8.641731770833333
-8.672317708333333
-8.742682291666666
-8.776809895833333
-8.768763020833333
-8.743255208333334
-8.705104166666667
-8.692760416666667
-8.695833333333333
-8.710143229166667
-8.704440104166666
-8.703541666666666
-8.730651041666667
-8.719309895833334
-8.7151171875
-8.708138020833333
-8.743828125
-8.805338541666666
-8.839375
-8.832369791666666
-8.823658854166666
-8.803033854166667
-8.7990234375
-8.802486979166666
-8.788489583333334
-8.7686328125
-8.780729166666667
-8.820572916666666
-8.797369791666666
-8.749036458333334
-8.709192708333333
-8.721015625
-8.70140625
-8.7301953125
-8.740065104166666
-8.77671875
-8.802018229166666
-8.828372395833334
-8.832591145833334
-8.825846354166666
-8.8352734375
-8.840013020833334
-8.873528645833334
-8.927057291666667
-8.959231770833334
-8.987291666666666
-8.9654296875
-8.957265625
-8.949466145833334
-8.934856770833333
-8.9313671875
-8.986328125
-8.96734375
-8.933854166666666
-8.935911458333333
-8.962578125
-8.978854166666666
-8.979075520833334
-8.9797265625
-8.982578125
-9.0147265625
-9.008984375
-8.997161458333334
-9.022057291666666
-9.0221875
-9.044557291666667
-9.0265234375
-9.02265625
-9.0214453125
-9.04515625
-9.064453125
-9.0765234375
-9.081966145833333
-9.076510416666666
-9.041432291666666
-8.998515625
-8.978645833333333
-8.991184895833333
-9.0112109375
-9.004166666666666
-8.99828125
-9.004075520833334
-9.024309895833333
-9.0433984375
-9.055481770833333
-9.086848958333333
-9.1029296875
-9.105963541666666
-9.108359375
-9.1144140625
-9.117434895833334
-9.1084765625
-9.122630208333334
-9.131380208333333
-9.14578125
-9.153385416666667
-9.1753515625
-9.160638020833334
-9.164270833333333
-9.1762109375
-9.157252604166667
-9.1330078125
-9.08921875
-9.1000390625
-9.105885416666666
-9.114283854166667
-9.117786458333333
-9.1262109375
-9.123880208333333
-9.138619791666667
-9.134309895833333
-9.152096354166666
-9.1797265625
-9.201627604166667
-9.207760416666666
-9.2325390625
-9.235052083333333
-9.224309895833333
-9.0669921875
-9.154348958333333
-8.916328125
-9.026744791666667
-9.039765625
-9.0458984375
-9.044908854166666
-9.0321875
-9.027044270833333
-9.019296875
-9.0134375
-8.950299479166667
-8.886458333333334
-8.850247395833334
-8.8421875
-8.7995703125
-8.788463541666667
-8.786809895833333
-8.784934895833333
-8.779596354166667
-8.821497395833333
-8.809244791666666
-8.82734375
-8.8331640625
-8.829466145833333
-8.835807291666667
-8.830286458333333
-8.855533854166667
-8.884778645833334
-8.893736979166667
-8.940690104166666
-8.936223958333333
-8.960651041666667
-8.924986979166667
-8.852096354166667
-8.8694140625
-8.869322916666667
-8.886848958333333
-8.9053515625
-8.932591145833333
-8.938229166666666
-8.92578125
-8.954010416666666
-8.951536458333333
-8.956106770833333
-8.9928515625
-8.983606770833333
-8.9659765625
-8.959153645833334
-8.994544270833334
-9.023658854166667
-9.017408854166666
-8.984817708333333
-8.9410546875
-8.918463541666666
-8.94203125
-8.920013020833334
-8.9502734375
-8.950221354166667
-8.962291666666667
-8.9784765625
-8.949765625
-8.946783854166666
-8.9483203125
-8.957174479166667
-8.9603125
-8.966627604166666
-8.974817708333333
-8.951223958333333
-8.933893229166667
-8.932486979166667
-8.959322916666666
-8.94328125
-8.965130208333333
-8.939114583333334
-8.879518229166667
-8.845598958333333
-8.820807291666666
-8.8269140625
-8.8246484375
-8.8163671875
-8.8371875
-8.865052083333333
-8.852760416666667
-8.853802083333333
-8.858802083333334
-8.860143229166667
-8.877395833333333
-8.8458984375
-8.844114583333333
-8.847252604166666
-8.8591015625
-8.867265625
-8.881158854166667
-8.916588541666666
-8.90390625
-8.817760416666667
-8.768541666666666
-8.768515625
-8.752578125
-8.766263020833334
-8.7718359375
-8.758841145833333
-8.777265625
-8.7462890625
-8.76015625
-8.7591796875
-8.768411458333333
-8.7892578125
-8.7800390625
-8.788489583333334
-8.806809895833334
-8.810364583333333
-8.7948046875
-8.803098958333333
-8.829088541666666
-8.8432421875
-8.8235546875
-8.766575520833333
-8.727760416666667
-8.729388020833333
-8.740989583333333
-8.73796875
-8.756276041666666
-8.7280078125
-8.7339453125
-8.710690104166666
-8.712369791666667
-8.7178125
-8.756940104166667
-8.750924479166667
-8.7470703125
-8.762057291666666
-8.778046875
-8.765846354166667
-8.777018229166666
-8.780768229166666
-8.790625
-8.790286458333334
-8.803268229166667
-8.82765625
-8.842864583333334
-8.787356770833334
-8.713567708333333
-8.698841145833333
-8.7216796875
-8.712109375
-8.7328125
-8.73109375
-8.7327734375
-8.743450520833333
-8.75546875
-8.7554296875
-8.760572916666666
-8.772447916666666
-8.7995703125
-8.784427083333334
-8.797604166666666
-8.8081640625
-8.807526041666666
-8.8282421875
-8.8404296875
-8.829986979166666
-8.853763020833334
-8.828177083333333
-8.799817708333334
-8.810677083333333
-8.750234375
-8.656419270833334
-8.6243359375
-8.6316015625
-8.6457421875
-8.637200520833334
-8.645234375
-8.665416666666667
-8.658893229166667
-8.6447265625
-8.666328125
-8.66984375
-8.691302083333333
-8.6894921875
-8.714375
-8.705442708333333
-8.710286458333334
-8.714479166666667
-8.720455729166666
-8.730963541666666
-8.731705729166666
-8.759609375
-8.753333333333334
-8.7692578125
-8.793658854166667
-8.7833203125
-8.7234375
-8.6741015625
-8.682916666666667
-8.702395833333334
-8.695872395833334
-8.706315104166666
-8.729518229166667
-8.7418359375
-8.766861979166666
-8.7644921875
-8.783463541666666
-8.791028645833334
-8.808815104166667
-8.816861979166667
-8.801979166666667
-8.799036458333333
-8.8036328125
-8.805611979166667
-8.823671875
-8.845143229166666
-8.8715234375
-8.92375
-8.934622395833333
-8.883125
-8.79828125
-8.817591145833333
-8.831666666666667
-8.8346484375
-8.860872395833333
-8.850143229166667
-8.841588541666667
-8.861197916666667
-8.879283854166667
-8.887994791666667
-8.895013020833334
-8.9058203125
-8.911223958333334
-8.891028645833334
-8.907278645833333
-8.926354166666666
-8.9198046875
-8.930963541666667
-8.933893229166667
-8.946588541666667
-8.9541796875
-8.91671875
-8.833411458333334
-8.83671875
-8.852916666666667
-8.8707421875
-8.898450520833334
-8.893372395833333
-8.915169270833333
-8.881197916666666
-8.893177083333333
-8.897369791666666
-8.909544270833333
-8.939466145833334
-8.9526953125
-8.965104166666666
-8.959895833333333
-8.949140625
-8.954088541666666
-8.978880208333333
-8.985755208333334
-8.985546875
-8.982721354166667
-8.908346354166667
-8.877734375
-8.870078125
-8.87703125
-8.886223958333334
-8.9009765625
-8.9391015625
-8.961302083333333
-8.944817708333334
-8.932955729166666
-8.943177083333333
-8.981328125
-8.972994791666666
-8.987369791666667
-8.964075520833333
-8.941419270833334
-8.940533854166667
-8.988958333333333
-8.978802083333333
-8.9330078125
-8.8805859375
-8.887395833333333
-8.889427083333333
-8.895143229166667
-8.878815104166666
-8.851158854166666
-8.87140625
-8.8748046875
-8.8812890625
-8.911315104166667
-8.929049479166666
-8.933294270833333
-8.9379296875
-8.951067708333333
-8.9322265625
-8.956432291666667
-8.943515625
-8.959505208333333
-8.9569921875
-8.950859375
-8.953359375
-8.925299479166666
-8.8433203125
-8.818619791666666
-8.817643229166666
-8.8321484375
-8.840026041666667
-8.841263020833333
-8.835794270833333
-8.83359375
-8.828046875
-8.828919270833333
-8.841328125
-8.840130208333333
-8.8534765625
-8.864322916666667
-8.857552083333333
-8.86140625
-8.878828125
-8.889752604166667
-8.908489583333333
-8.92875
-8.924583333333333
-8.953046875
-8.9312109375
-8.939270833333333
-8.941263020833333
-8.881822916666666
-8.814114583333334
-8.805885416666667
-8.818111979166666
-8.826158854166666
-8.802161458333334
-8.794283854166666
-8.794544270833333
-8.780078125
-8.7930859375
-8.773359375
-8.797825520833333
-8.807447916666666
-8.809778645833333
-8.815716145833333
-8.818815104166667
-8.822864583333333
-8.8298046875
-8.8330859375
-8.818307291666667
-8.8386328125
-8.866080729166667
-8.857942708333333
-8.875859375
-8.881393229166667
-8.899348958333333
-8.876236979166666
-8.912890625
-8.91390625
-8.925494791666667
-8.9127734375
-8.840572916666666
-8.806106770833333
-8.796471354166666
-8.809752604166667
-8.8151171875
-8.800325520833333
-8.815221354166667
-8.798177083333334
-8.796184895833333
-8.779440104166667
-8.791888020833333
-8.806940104166667
-8.8258984375
-8.845390625
-8.840325520833334
-8.847669270833334
-8.830494791666666
-8.7967578125
-8.805833333333334
-8.807434895833333
-8.787486979166667
-8.775078125
-8.7901953125
-8.8551953125
-8.876119791666667
-8.868541666666667
-8.883424479166667
-8.878828125
-8.873958333333333
-8.8004296875
-8.706822916666667
-8.695481770833334
-8.69328125
-8.64234375
-8.6053515625
-8.577421875
-8.563684895833333
-8.548580729166666
-8.602278645833334
-8.683802083333333
-8.753229166666667
-8.779739583333333
-8.749270833333334
-8.702395833333334
-8.648502604166667
-8.577760416666667
-8.508138020833334
-8.497408854166666
-8.509947916666667
-8.506002604166667
-8.4937890625
-8.4693359375
-8.4188671875
-8.4254296875
-8.387421875
-8.3153515625
-8.297630208333333
-8.305416666666666
-8.344296875
-8.362200520833333
-8.400859375
-8.4421875
-8.453997395833333
-8.446549479166666
-8.4709375
-8.471080729166667
-8.4915625
-8.489947916666667
-8.4898828125
-8.4394140625
-8.411484375
-8.390846354166667
-8.403125
-8.4303515625
-8.423033854166667
-8.427057291666667
-8.4306640625
-8.426705729166667
-8.396901041666666
-8.324869791666666
-8.3133984375
-8.334791666666666
-8.323997395833333
-8.31234375
-8.311953125
-8.333255208333334
-8.340221354166667
-8.306354166666667
-8.294283854166666
-8.301536458333333
-8.290286458333334
-8.307916666666667
-8.297526041666666
-8.3024609375
-8.3146875
-8.3029296875
-8.322604166666666
-8.327994791666667
-8.339752604166666
-8.332408854166667
-8.3459765625
-8.347526041666667
-8.3300390625
-8.288255208333334
-8.233958333333334
-8.225234375
-8.227838541666667
-8.517356770833333
-8.560364583333333
-10.7986328125
-10.743880208333334
-10.737708333333334
-10.758606770833333
-10.7632421875
-10.783671875
-10.780013020833334
-10.787721354166667
-10.8065625
-10.8166796875
-10.822630208333333
-10.846041666666666
-10.854427083333333
-10.840611979166667
-10.836588541666666
-10.89390625
-10.9054296875
-10.925247395833333
-10.909114583333333
-10.838268229166667
-10.802578125
-10.825885416666667
-10.803645833333333
-10.797526041666666
-10.7998828125
-10.8105859375
-10.800833333333333
-10.8005859375
-10.80484375
-10.80203125
-10.7958203125
-10.804505208333333
-10.788424479166666
-10.792630208333334
-10.7878515625
-10.814518229166667
-10.8065625
-10.803723958333334
-10.833984375
-10.8504296875
-10.839296875
-10.866236979166667
-10.808658854166667
-10.793841145833333
-10.782122395833333
-10.781106770833333
-10.786393229166666
-10.818841145833334
-10.826848958333333
-10.832057291666667
-10.837174479166666
-10.8293359375
-10.850690104166667
-10.859348958333333
-10.874609375
-10.898658854166667
-10.918606770833334
-10.963255208333333
-10.964231770833333
-10.989192708333333
-10.993020833333333
-11.019440104166666
-11.0125390625
-11.022838541666667
-11.015299479166666
-10.957174479166667
-10.9114453125
-10.935559895833334
-10.957356770833334
-10.950234375
-10.9890234375
-10.991302083333334
-10.994869791666666
-10.94328125
-10.973723958333334
-11.010026041666666
-10.999817708333333
-11.0058984375
-11.011236979166666
-11.015104166666667
-10.998802083333333
-10.983385416666666
-11.014270833333333
-11.023971354166667
-11.027265625
-11.0383203125
-10.98875
-10.921419270833333
-10.8819140625
-10.8751171875
-10.8892578125
-10.8805078125
-10.89265625
-10.917473958333334
-10.926575520833333
-10.9229296875
-10.911627604166666
-10.8973828125
-10.907591145833333
-10.903776041666667
-10.898190104166666
-10.896653645833334
-10.900338541666667
-10.8871484375
-10.898723958333333
-10.901432291666667
-10.838841145833333
-10.779518229166667
-10.760104166666666
-10.764453125
-10.767942708333333
-10.7886328125
-10.808697916666667
-10.808502604166666
-10.793463541666666
-10.803229166666666
-10.837200520833333
-10.8396875
-10.841783854166666
-10.833059895833333
-10.827916666666667
-10.827604166666667
-10.819075520833334
-10.821184895833333
-10.826393229166667
-10.858541666666667
-10.871041666666667
-10.896953125
-10.859283854166666
-10.8063671875
-10.750208333333333
-10.756744791666666
-10.7856640625
-10.7915234375
-10.7759765625
-10.789934895833333
-10.7951171875
-10.763098958333334
-10.765442708333333
-10.772721354166666
-10.782447916666667
-10.8116015625
-10.814114583333334
-10.830559895833334
-10.8408203125
-10.829856770833333
-10.8315625
-10.825338541666667
-10.822252604166666
-10.8425
-10.83625
-10.834596354166667
-10.8153515625
-10.8033203125
-10.7369140625
-10.671666666666667
-10.679713541666667
-10.683190104166666
-10.6963671875
-10.6944921875
-10.689049479166666
-10.7119140625
-10.714583333333334
-10.7106640625
-10.719583333333333
-10.735963541666667
-10.750026041666667
-10.730208333333334
-10.74328125
-10.757356770833333
-10.7509375
-10.754127604166667
-10.7463671875
-10.746497395833334
-10.763541666666667
-10.795807291666666
-10.7927734375
-10.811276041666666
-10.825611979166666
-10.835325520833333
-10.806315104166666
-10.728229166666667
-10.647447916666666
-10.619895833333333
-10.641653645833333
-10.642877604166667
-10.644479166666667
-10.664075520833334
-10.702721354166666
-10.715950520833333
-10.697486979166667
-10.708776041666667
-10.70140625
-10.7222265625
-10.714908854166667
-10.738697916666666
-10.755390625
-10.741471354166666
-10.741184895833333
-10.717317708333333
-10.738372395833334
-10.7369140625
-10.741171875
-10.73546875
-10.738268229166666
-10.7417578125
-10.7400390625
-10.716979166666667
-10.633619791666666
-10.5832421875
-10.569713541666667
-10.593125
-10.615846354166667
-10.633919270833333
-10.6289453125
-10.6398828125
-10.623723958333333
-10.60984375
-10.5883203125
-10.597200520833333
-10.579153645833333
-10.6176171875
-10.630520833333334
-10.665130208333334
-10.661692708333334
-10.66296875
-10.668307291666666
-10.6813671875
-10.7076953125
-10.732044270833333
-10.744544270833334
-10.776744791666667
-10.798346354166666
-10.78375
-10.718385416666667
-10.667278645833333
-10.648098958333334
-10.6626953125
-10.652786458333333
-10.639505208333333
-10.633515625
-10.644661458333333
-10.626940104166666
-10.645364583333333
-10.657291666666667
-10.6726953125
-10.724140625
-10.737942708333334
-10.742877604166667
-10.742317708333333
-10.743359375
-10.746809895833334
-10.739635416666667
-10.747096354166667
-10.739283854166667
-10.737252604166667
-10.757955729166667
-10.723854166666667
-10.649908854166666
-10.600755208333334
-10.582083333333333
-10.578619791666666
-10.597916666666666
-10.584114583333333
-10.584895833333333
-10.609479166666667
-10.595625
-10.591692708333333
-10.5896484375
-10.5895703125
-10.612200520833333
-10.618958333333333
-10.607135416666667
-10.607096354166666
-10.615677083333333
-10.604361979166667
-10.638658854166666
-10.654765625
-10.658671875
-10.684778645833333
-10.680598958333333
-10.590390625
-10.527747395833334
-10.518229166666666
-10.503515625
-10.519973958333333
-10.550768229166666
-10.518268229166667
-10.5020703125
-10.5119140625
-10.520208333333333
-10.5155859375
-10.545846354166667
-10.5553515625
-10.552161458333334
-10.545703125
-10.553815104166667
-10.5409375
-10.533125
-10.5740625
-10.590052083333333
-10.603450520833333
-10.540794270833333
-10.467200520833334
-10.420143229166667
-10.433502604166666
-10.433541666666667
-10.432877604166666
-10.411158854166667
-10.418802083333333
-10.434713541666667
-10.4958203125
-8.216731770833333
-8.277421875
-8.278046875
-8.287395833333333
-8.302604166666667
-8.306067708333334
-8.294635416666667
-8.307135416666666
-8.299986979166667
-8.305481770833333
-8.316002604166666
-8.325377604166667
-8.333541666666667
-8.337408854166666
-8.3238671875
-8.253984375
-8.19015625
-8.167473958333334
-8.190026041666666
-8.201848958333333
-8.184609375
-8.167135416666667
-8.1894140625
-8.174700520833333
-8.170390625
-8.171236979166666
-8.174375
-8.186236979166667
-8.1928125
-8.175130208333334
-8.186067708333333
-8.201028645833333
-8.205768229166667
-8.1996484375
-8.212721354166666
-8.228450520833333
-8.226822916666666
-8.227864583333334
-8.257825520833334
-8.2508203125
-8.253802083333333
-8.270677083333334
-8.273893229166667
-8.217916666666667
-8.120989583333333
-8.0836328125
-8.102044270833334
-8.117942708333333
-8.249973958333333
-8.184973958333334
-8.383971354166667
-8.341354166666667
-8.331796875
-8.316901041666666
-8.3284765625
-8.357174479166666
-8.3777734375
-8.3980859375
-8.37921875
-8.3948046875
-8.399401041666666
-8.40953125
-8.425455729166666
-8.442122395833334
-8.4596875
-8.481510416666667
-8.4890234375
-8.494583333333333
-8.521184895833333
-8.5298046875
-8.474908854166667
-8.393046875
-8.358645833333334
-8.4051171875
-8.420390625
-8.429856770833334
-8.440859375
-8.469791666666667
-8.469830729166667
-8.463997395833333
-8.457057291666667
-8.474908854166667
-8.508880208333334
-8.533919270833334
-8.539635416666666
-8.553697916666666
-8.575546875
-8.569778645833333
-8.573229166666666
-8.611302083333333
-8.610247395833333
-8.609127604166666
-8.633528645833334
-8.659244791666667
-8.675260416666667
-8.6925390625
-8.698776041666667
-8.6645703125
-8.614596354166666
-8.609518229166667
-8.641666666666667
-8.667369791666667
-8.650247395833333
-8.641705729166667
-8.658645833333333
-8.644114583333334
-8.655572916666667
-8.652903645833334
-8.645703125
-8.6655859375
-8.675078125
-8.690143229166667
-8.694192708333333
-8.7040234375
-8.717291666666666
-8.713346354166667
-8.737265625
-8.752942708333334
-8.748658854166667
-8.746966145833333
-8.7562109375
-8.741731770833333
-8.673619791666667
-8.672955729166667
-8.708177083333334
-8.72671875
-8.738125
-8.7316015625
-8.730208333333334
-8.739453125
-8.750768229166667
-8.745885416666667
-8.756432291666666
-8.788919270833333
-8.806145833333334
-8.766979166666667
-8.772005208333333
-8.741627604166666
-8.738033854166666
-8.738932291666666
-8.73453125
-8.7403125
-8.7560546875
-8.783567708333333
-8.758515625
-8.7090234375
-8.691588541666667
-8.690377604166667
-8.692747395833333
-8.6591796875
-8.635872395833333
-8.662578125
-8.642356770833333
-8.621432291666666
-8.597278645833333
-8.573229166666666
-8.571731770833333
-8.58359375
-8.585442708333334
-8.560533854166666
-8.546458333333334
-8.5385546875
-8.504114583333333
-8.419505208333334
-8.374075520833333
-8.361080729166666
-8.399114583333333
-8.397786458333334
-8.404700520833334
-8.420768229166667
-8.398020833333334
-8.404401041666667
-8.395455729166667
-8.361002604166666
-8.3656640625
-8.378307291666667
-8.382799479166666
-8.403255208333333
-8.432825520833333
-8.437630208333333
-8.438763020833333
-8.451979166666666
-8.443763020833334
-8.414270833333333
-8.345846354166667
-8.309609375
-8.306770833333333
-8.313997395833333
-8.311979166666667
-8.303138020833334
-8.301653645833333
-8.313138020833334
-8.284049479166667
-8.316171875
-8.3194140625
-8.332799479166667
-8.323372395833333
-8.328541666666666
-8.3505859375
-8.3483203125
-8.337135416666667
-8.344661458333333
-8.3355859375
-8.336263020833334
-8.296927083333333
-8.26859375
-8.249869791666667
-8.1880859375
-8.146276041666667
-8.168541666666666
-8.166627604166667
-8.184765625
-8.169283854166666
-8.188684895833333
-8.213619791666666
-8.229127604166667
-8.237161458333333
-8.259140625
-8.2944140625
-8.314934895833334
-8.328046875
-8.334114583333333
-8.4115625
-8.401184895833333
-8.4187109375
-8.445
-8.4709765625
-8.484661458333333
-8.533502604166667
-8.57296875
-8.5828515625
-8.6059375
-8.621028645833333
-8.563463541666666
-8.569036458333333
-8.592395833333333
-8.609661458333333
-8.634127604166666
-8.6143359375
-8.635286458333333
-8.673203125
-8.680729166666667
-8.692734375
-8.718619791666667
-8.728450520833333
-8.738268229166666
-8.75265625
-8.785611979166667
-8.789244791666667
-8.787890625
-8.778645833333334
-8.778619791666667
-8.816927083333333
-8.828828125
-8.827942708333333
-8.819296875
-8.86203125
-8.8372265625
-8.784908854166666
-8.751614583333334
-8.722799479166667
-8.726953125
-8.715950520833333
-8.696263020833333
-8.692421875
-8.714778645833333
-8.696184895833333
-8.672044270833334
-8.668567708333333
-8.675546875
-8.669778645833333
-8.661536458333334
-8.695208333333333
-8.687356770833333
-8.687447916666667
-8.672591145833334
-8.6759375
-8.693463541666667
-8.714296875
-8.707317708333333
-8.7050390625
-8.6840234375
-8.635065104166667
-8.607317708333333
-8.576106770833333
-8.596888020833333
-8.614348958333334
-8.6182421875
-8.6405078125
-8.6288671875
-8.651145833333333
-8.678203125
-8.686223958333333
-8.680520833333333
-8.670026041666667
-8.6698828125
-8.681158854166666
-8.7128515625
-8.705260416666667
-8.693841145833334
-8.708177083333334
-8.72578125
-8.723059895833334
-8.730911458333333
-8.672565104166667
-8.568229166666667
-8.523580729166667
-8.533268229166667
-8.538151041666667
-8.567786458333334
-8.5821484375
-8.595729166666667
-8.628606770833333
-8.619856770833334
-8.614283854166667
-8.619166666666667
-8.644270833333334
-8.649036458333333
-8.66890625
-8.669283854166666
-8.710104166666667
-8.7370703125
-8.887955729166666
-8.884674479166666
-8.957291666666666
-8.7909765625
-8.850755208333334
-8.760013020833334
-8.7769921875
-8.7015234375
-8.665026041666666
-8.65625
-8.666588541666666
-8.67375
-8.675533854166666
-8.68703125
-8.668046875
-8.683307291666667
-8.677981770833334
-8.7034375
-8.7162109375
-8.716393229166666
-8.733489583333334
-8.723294270833334
-8.716588541666667
-8.711614583333333
-8.692604166666667
-8.693971354166667
-8.681940104166667
-8.6731640625
-8.670169270833334
-8.696328125
-8.695833333333333
-8.707565104166667
-8.698723958333334
-8.6358203125
-8.591536458333334
-8.61703125
-8.61296875
-8.6018359375
-8.621236979166667
-8.607213541666667
-8.579127604166667
-8.5819140625
-8.582682291666666
-8.608216145833333
-8.609752604166667
-8.6098828125
-8.623450520833334
-8.648020833333334
-8.623567708333333
-8.588450520833334
-8.579700520833333
-8.6212109375
-8.6340625
-8.660494791666666
-8.648255208333333
-8.658684895833334
-8.642955729166667
-8.636471354166666
-8.620481770833333
-8.574270833333333
-8.5134765625
-8.499440104166666
-8.496731770833334
-8.497760416666667
-8.4808984375
-8.459270833333333
-8.480872395833334
-8.455533854166667
-8.440520833333334
-8.457356770833334
-8.46984375
-8.473489583333333
-8.4795703125
-8.4821875
-8.490729166666666
-8.543919270833333
-8.524075520833334
-8.4928515625
-8.460833333333333
-8.4823046875
-8.540520833333334
-8.593658854166666
-8.601458333333333
-8.605130208333334
-8.576341145833334
-8.512604166666666
-8.496510416666666
-8.503502604166666
-8.5084375
-8.520559895833333
-8.5159765625
-8.5116796875
-8.498177083333333
-8.528359375
-8.527083333333334
-8.552682291666667
-8.580546875
-8.616770833333334
-8.614049479166667
-8.606145833333333
-8.580625
-8.570143229166666
-8.615364583333333
-8.619739583333333
-8.607083333333334
-8.611796875
-8.645872395833333
-8.608333333333333
-8.5442578125
-8.4699609375
-8.480729166666666
-8.490546875
-8.466770833333333
-8.464205729166666
-8.481236979166667
-8.496380208333333
-8.506393229166667
-8.5086328125
-8.502057291666667
-8.513880208333333
-8.54203125
-8.573684895833333
-8.592174479166667
-8.60390625
-8.566106770833333
-8.563372395833333
-8.586875
-8.586549479166667
-8.5934765625
-8.595091145833333
-8.537083333333333
-8.48453125
-8.498203125
-8.522356770833333
-8.526979166666667
-8.523984375
-8.473216145833334
-8.442473958333334
-8.444479166666667
-8.4468359375
-8.4403515625
-8.459713541666666
-8.466627604166666
-8.4880859375
-8.507447916666667
-8.503203125
-8.506653645833333
-8.507057291666667
-8.527434895833334
-8.507552083333334
-8.518098958333333
-8.511315104166666
-8.425872395833334
-8.346901041666667
-8.325859375
-8.346197916666666
-8.340572916666666
-8.3341015625
-8.3512890625
-8.354739583333334
-8.359661458333333
-8.372096354166667
-8.352630208333334
-8.376653645833333
-8.37328125
-8.3892578125
-8.4053125
-8.400234375
-8.386796875
-8.385690104166667
-8.387057291666666
-8.412395833333333
-8.409375
-8.4267578125
-8.419609375
-8.365625
-8.3115234375
-8.27765625
-8.296080729166667
-8.3182421875
-8.308424479166666
-8.314036458333334
-8.31578125
-8.321041666666666
-8.318671875
-8.3101953125
-8.310989583333333
-8.316705729166667
-8.313528645833333
-8.31375
-8.327018229166667
-8.3371484375
-8.320885416666666
-8.3116015625
-8.31875
-8.342591145833333
-8.3435546875
-8.349283854166666
-8.377447916666666
-8.386731770833334
-8.326861979166667
-8.259856770833334
-8.223255208333333
-8.221940104166666
-8.234830729166667
-8.227669270833333
-8.260182291666666
-8.257291666666667
-8.2826953125
-8.321861979166666
-8.320403645833334
-8.307161458333333
-8.316588541666667
-8.3254296875
-8.311783854166666
-8.328828125
-8.343984375
-8.338684895833333
-8.336731770833333
-8.35328125
-8.3650390625
-8.3735546875
-8.302734375
-8.236028645833333
-8.208606770833333
-8.2258984375
-8.229557291666667
-8.2291796875
-8.232486979166667
-8.220403645833333
-8.224309895833333
-8.2219140625
-8.2232421875
-8.233619791666667
-8.247981770833333
-8.252734375
-8.256080729166667
-8.252135416666667
-8.273515625
-8.282252604166667
-8.2797265625
-8.2776171875
-8.290572916666667
-8.286640625
-8.2794921875
-8.267838541666666
-8.2941796875
-8.2709765625
-8.2205859375
-8.1625
-8.160716145833334
-8.192252604166667
-8.175546875
-8.1995703125
-8.2297265625
-8.251354166666667
-8.246588541666666
-8.228828125
-8.239075520833333
-8.261497395833333
-8.253854166666667
-8.227682291666667
-8.253828125
-8.248268229166667
-8.252473958333333
-8.247395833333334
-8.250247395833334
-8.254348958333333
-8.272291666666666
-8.27640625
-8.283619791666666
-8.222981770833334
-8.160182291666667
-8.162890625
-8.180924479166666
-8.185325520833333
-8.1833984375
-8.186171875
-8.189973958333333
-8.177786458333333
-8.179010416666667
-8.185013020833333
-8.203346354166667
-8.213294270833334
-8.2221875
-8.203216145833334
-8.215651041666666
-8.220130208333334
-8.2124609375
-8.234596354166667
-8.2457421875
-8.277395833333333
-8.280755208333334
-8.291145833333333
-8.304427083333334
-8.287083333333333
-8.228776041666666
-8.184466145833333
-8.193528645833334
-8.203854166666666
-8.226705729166667
-8.266106770833334
-8.269635416666667
-8.261223958333334
-8.253333333333334
-8.258658854166667
-8.287096354166666
-8.291653645833334
-8.299036458333333
-8.289778645833334
-8.292473958333334
-8.279153645833333
-8.2569921875
-8.265442708333333
-8.277278645833333
-8.281380208333333
-8.2901171875
-8.290078125
-8.2798046875
-8.214596354166666
-8.158424479166667
-8.141197916666666
-8.1437109375
-8.161171875
-8.173697916666667
-8.169309895833333
-8.178671875
-8.155026041666666
-8.150572916666667
-8.148033854166666
-8.148697916666666
-8.167994791666667
-8.1728125
-8.202825520833333
-8.215390625
-8.200234375
-8.199622395833334
-8.198151041666666
-8.194192708333333
-8.207213541666667
-8.2162890625
-8.228216145833333
-8.231666666666667
-8.202552083333334
-8.118294270833333
-8.069817708333334
-8.064778645833334
-8.096653645833333
-8.2111328125
-10.369700520833334
-10.483997395833333
-8.243125
-8.270533854166667
-8.275364583333333
-8.298372395833333
-8.301484375
-8.305026041666666
-8.3305078125
-8.330390625
-8.3171875
-8.316927083333333
-8.31515625
-8.291875
-8.328541666666666
-8.329830729166666
-8.356510416666667
-8.374270833333334
-8.360364583333334
-8.2887109375
-8.219296875
-8.200104166666666
-8.215390625
-8.2123828125
-8.213541666666666
-8.215638020833333
-8.225729166666667
-8.219778645833333
-8.214713541666667
-8.227578125
-8.248854166666666
-8.266080729166667
-8.278736979166666
-8.2769140625
-8.2723828125
-8.250833333333333
-8.271588541666667
-8.282291666666667
-8.277877604166667
-8.300364583333334
-8.292447916666667
-8.3080859375
-8.314518229166667
-8.3300390625
-8.226119791666667
-8.165260416666667
-8.203893229166667
-8.2048046875
-8.198932291666667
-8.2454296875
-8.2446484375
-8.246263020833334
-8.282330729166667
-8.281380208333333
-8.296236979166666
-8.293854166666666
-8.305520833333333
-8.318059895833333
-8.3216015625
-8.317734375
-8.320377604166667
-8.333971354166666
-8.349114583333334
-8.355052083333334
-8.4072265625
-8.4278515625
-8.450651041666667
-8.486328125
-8.475325520833334
-8.435286458333334
-8.37203125
-8.35328125
-8.371315104166667
-8.373645833333333
-8.371184895833334
-8.358072916666666
-8.3645703125
-8.3825390625
-8.362838541666667
-8.335598958333334
-8.3515234375
-8.364518229166666
-8.372591145833333
-8.385846354166667
-8.408671875
-8.401223958333333
-8.399674479166666
-8.40390625
-8.407135416666666
-8.424010416666667
-8.448059895833333
-8.450390625
-8.430325520833334
-8.388828125
-8.3364453125
-8.333776041666667
-8.347747395833334
-8.361197916666667
-8.36
-8.388502604166666
-8.400690104166667
-8.373684895833334
-8.382526041666667
-8.382096354166666
-8.382578125
-8.40125
-8.404088541666667
-8.426197916666666
-8.42515625
-8.433059895833333
-8.454856770833333
-8.438736979166666
-8.4668359375
-8.453372395833334
-8.465625
-8.459778645833333
-8.4735546875
-8.463684895833333
-8.415651041666667
-8.341276041666667
-8.327109375
-8.364375
-8.394322916666667
-8.411888020833333
-8.422265625
-8.427161458333334
-8.4082421875
-8.365716145833334
-8.380065104166667
-8.3967578125
-8.414166666666667
-8.439518229166667
-8.457083333333333
-8.458125
-8.457669270833334
-8.458125
-8.4665234375
-8.468606770833333
-8.485716145833333
-8.502083333333333
-8.512018229166667
-8.522161458333333
-8.533372395833334
-8.548046875
-8.5418359375
-8.524166666666666
-8.443307291666667
-8.415703125
-8.4490234375
-8.436875
-8.425768229166666
-8.439244791666667
-8.444466145833333
-8.441653645833334
-8.450963541666667
-8.476627604166667
-8.480989583333333
-8.491549479166666
-8.496067708333333
-8.505611979166666
-8.527604166666666
-8.5201953125
-8.52359375
-8.499401041666667
-8.534778645833333
-8.536666666666667
-8.5330859375
-8.528502604166667
-8.547838541666666
-8.548359375
-8.5594140625
-8.563020833333333
-8.5320703125
-8.478033854166666
-8.471158854166667
-8.492825520833334
-8.51828125
-8.515950520833334
-8.526067708333333
-8.5227734375
-8.523151041666667
-8.5218359375
-8.534283854166667
-8.571744791666667
-8.582174479166667
-8.5930078125
-8.5946484375
-8.608893229166666
-8.604309895833333
-8.630247395833333
-8.641979166666667
-8.64609375
-8.645234375
-8.658776041666666
-8.623880208333333
-8.642356770833333
-8.655677083333334
