-25.547239583333333
-8.180299479166667
-17.419635416666665
-14.738138020833333
-40.20694010416667
-28.568190104166668
-28.888919270833334
-26.334557291666666
-24.384752604166668
-23.781966145833334
-22.347786458333335
-20.701432291666666
-20.135442708333333
-20.163203125
-20.245403645833335
-20.19903645833333
-20.228828125
-20.2650390625
-20.270286458333334
-20.301927083333332
-20.367994791666668
-20.373776041666666
-20.380052083333332
-20.382552083333334
-20.365768229166665
-20.40328125
-20.439622395833332
-20.41876302083333
-20.4312890625
-20.485481770833335
-20.450481770833335
-20.3275
-20.229622395833335
-20.220377604166668
-20.246692708333335
-20.2524609375
-20.264153645833332
-20.24688802083333
-20.272109375
-20.293671875
-20.292708333333334
-20.2843359375
-20.306770833333335
-20.303854166666667
-20.28888020833333
-20.309908854166668
-20.293958333333332
-20.253190104166666
-20.262916666666666
-20.273776041666668
-20.250234375
-20.27296875
-20.311575520833333
-20.318580729166666
-20.24123697916667
-20.124869791666665
-20.080182291666667
-20.075208333333332
-19.9983203125
-20.0083984375
-20.52515625
-20.339479166666667
-20.881315104166667
-20.579088541666668
-20.620234375
-20.6231640625
-20.694856770833333
-20.711783854166665
-20.598190104166665
-20.614322916666666
-20.573138020833333
-20.616510416666667
-20.605950520833332
-20.617018229166668
-20.643828125
-20.757369791666665
-20.674765625
-20.535572916666666
-20.465416666666666
-20.528307291666668
-20.544661458333334
-20.58709635416667
-20.678424479166665
-20.688359375
-20.7065625
-20.728216145833333
-20.77341145833333
-20.770716145833333
-20.788177083333334
-20.779908854166667
-20.750546875
-20.732213541666667
-20.688671875
-20.699609375
-20.754778645833333
-20.803450520833334
-20.952604166666667
-20.970625
-20.911640625
-20.937083333333334
-20.899427083333332
-20.887786458333334
-20.856861979166666
-20.843841145833334
-20.829192708333334
-20.842356770833334
-20.864908854166668
-20.929231770833333
-20.965989583333332
-20.985143229166667
-20.995950520833333
-21.012044270833332
-21.035885416666666
-21.003033854166667
-21.01515625
-21.044791666666665
-21.0569140625
-21.0704296875
-20.9711328125
-20.86140625
-20.8566015625
-20.8628125
-20.8751171875
-20.928072916666668
-20.877565104166667
-20.848736979166667
-20.8479296875
-20.817630208333334
-20.799322916666668
-20.815364583333334
-20.826041666666665
-20.8403515625
-20.8887109375
-20.908919270833334
-20.89276041666667
-20.88360677083333
-20.910403645833334
-20.943645833333335
-20.974140625
-21.039739583333333
-21.072473958333333
-20.969453125
-20.8660546875
-20.856705729166666
-20.92234375
-21.004244791666668
-21.023268229166668
-21.032018229166667
-21.03625
-20.968346354166666
-20.939114583333332
-20.9840234375
-21.0012890625
-21.044205729166666
-21.071575520833335
-21.118203125
-21.091302083333332
-21.098880208333334
-21.0837890625
-21.022109375
-21.030989583333334
-21.142825520833334
-21.2046484375
-21.17109375
-21.017018229166666
-20.91876302083333
-20.9087890625
-20.941419270833332
-21.0320703125
-21.024283854166665
-21.044674479166666
-21.034908854166666
-21.05466145833333
-21.07815104166667
-21.141861979166666
-21.042916666666667
-21.065885416666667
-21.060690104166667
-21.081822916666667
-21.121393229166667
-21.113567708333335
-20.9818359375
-20.882083333333334
-20.892083333333332
-20.902721354166665
-20.893072916666668
-20.870638020833333
-20.902825520833332
-20.953958333333333
-20.950481770833335
-20.976809895833334
-21.0407421875
-21.047552083333333
-21.092252604166667
-21.163697916666667
-21.20328125
-21.21970052083333
-21.235963541666667
-21.239947916666665
-21.267408854166668
-21.3130859375
-21.294361979166666
-21.167213541666666
-21.08875
-21.1267578125
-21.136145833333334
-21.182096354166667
-21.195481770833332
-21.199739583333333
-21.239934895833333
-21.283528645833332
-21.290494791666667
-21.314622395833332
-21.32109375
-21.28497395833333
-21.264114583333335
-21.26890625
-21.271263020833334
-21.318802083333335
-21.343020833333334
-21.223033854166665
-21.104895833333334
-21.088268229166665
-21.109375
-21.1398828125
-21.106302083333333
-21.072278645833332
-21.0773046875
-21.06890625
-21.046783854166666
-21.072890625
-21.13283854166667
-21.180924479166666
-21.218255208333332
-21.214296875
-21.238802083333333
-21.253229166666667
-21.275716145833332
-21.304973958333335
-21.308268229166668
-21.3287109375
-21.362317708333332
-21.375716145833334
-21.282278645833333
-21.114635416666665
-21.071901041666667
-21.1129296875
-21.13299479166667
-21.104544270833333
-21.095598958333333
-21.101041666666667
-21.113138020833333
-21.114518229166666
-21.119505208333333
-21.1314453125
-21.1823046875
-21.196666666666665
-21.208125
-21.191510416666667
-21.154635416666668
-21.172643229166667
-21.1830859375
-21.191328125
-21.2380078125
-21.285416666666666
-21.343684895833334
-21.359622395833334
-21.371653645833334
-21.392643229166666
-21.401497395833335
-21.179518229166668
-21.185755208333333
-21.182994791666665
-21.159322916666667
-21.1879296875
-21.20412760416667
-21.191770833333333
-21.1942578125
-21.2109375
-21.27140625
-21.339166666666667
-21.335572916666667
-21.348346354166665
-21.391796875
-21.386940104166666
-21.383033854166666
-21.4383203125
-21.503606770833333
-21.526067708333333
-21.535716145833334
-21.55328125
-21.58
-21.6183203125
-21.569583333333334
-21.553723958333332
-21.555716145833333
-21.4201171875
-21.35040364583333
-21.396705729166666
-21.521966145833332
-21.586223958333335
-21.533684895833332
-21.611966145833332
-21.682994791666665
-21.66619791666667
-21.643177083333335
-21.5689453125
-21.513138020833335
-21.5289453125
-21.600338541666666
-21.602760416666666
-21.589908854166666
-21.5810546875
-21.570885416666666
-21.631848958333332
-21.6558203125
-21.660677083333333
-21.6440625
-21.5719140625
-21.5011328125
-21.477552083333332
-21.373125
-21.2876953125
-21.218606770833333
-21.127265625
-21.085872395833334
-21.052356770833335
-21.096145833333335
-21.131796875
-21.111614583333335
-21.094635416666666
-21.1566015625
-21.148932291666668
-21.0975
-21.075234375
-21.1509375
-21.204010416666666
-21.178072916666668
-21.152018229166668
-21.152083333333334
-21.157760416666665
-21.126067708333334
-21.042096354166667
-20.905598958333332
-20.822838541666666
-20.8956640625
-20.9535546875
-20.940794270833333
-20.9111328125
-20.968177083333334
-21.024934895833333
-21.006901041666666
-21.031106770833333
-21.08010416666667
-21.172265625
-21.2059765625
-21.2024609375
-21.1551953125
-21.077447916666667
-20.9759765625
-20.829401041666667
-20.817721354166668
-20.892630208333333
-21.040442708333334
-21.105559895833334
-21.10626302083333
-21.016328125
-20.92484375
-20.897291666666668
-20.923125
-20.945143229166668
-20.9526171875
-20.943072916666665
-20.997265625
-20.9784765625
-20.964283854166666
-20.940377604166667
-21.009401041666667
-21.169088541666667
-21.230520833333333
-21.225546875
-21.1991796875
-21.163190104166667
-21.146575520833334
-21.1548828125
-21.119791666666668
-21.0969140625
-21.134427083333332
-21.166510416666668
-21.141796875
-21.017734375
-20.957421875
-20.958932291666667
-20.956979166666667
-21.001497395833333
-21.043294270833332
-21.12296875
-21.174934895833335
-21.188997395833333
-21.227330729166667
-21.2263671875
-21.22735677083333
-21.242721354166665
-21.331497395833335
-21.431432291666667
-21.522877604166666
-21.53338541666667
-21.497200520833335
-21.497421875
-21.487591145833335
-21.439700520833334
-21.4630859375
-21.576536458333333
-21.507760416666667
-21.44640625
-21.485807291666667
-21.512473958333334
-21.530625
-21.5276171875
-21.538580729166668
-21.578671875
-21.6259765625
-21.611276041666667
-21.637578125
-21.69903645833333
-21.7125
-21.726171875
-21.698971354166666
-21.707864583333333
-21.730091145833335
-21.776354166666668
-21.803098958333333
-21.823346354166667
-21.8775390625
-21.907604166666665
-21.742109375
-21.61721354166667
-21.634479166666665
-21.663424479166668
-21.6740234375
-21.660729166666666
-21.664010416666667
-21.7137109375
-21.743372395833333
-21.769544270833332
-21.8491796875
-21.887421875
-21.9333984375
-21.95330729166667
-21.952317708333332
-21.977903645833333
-21.9689453125
-21.973111979166667
-22.012317708333335
-22.040442708333334
-22.084635416666668
-22.102447916666666
-22.113216145833334
-22.1423046875
-22.144375
-22.1640234375
-22.1718359375
-22.045091145833332
-21.914114583333333
-21.9101953125
-21.963333333333335
-21.986731770833334
-21.981848958333334
-22.004388020833332
-22.028776041666667
-22.057317708333333
-22.06951822916667
-22.1004296875
-22.189934895833332
-22.241419270833333
-22.2628125
-22.312747395833334
-22.332552083333333
-22.302486979166666
-21.7507421875
-22.050703125
-21.60138020833333
-21.748671875
-21.792578125
-21.813033854166665
-21.783606770833334
-21.77765625
-21.764231770833334
-21.763307291666667
-21.718697916666667
-21.523580729166667
-21.327291666666667
-21.2572265625
-21.24807291666667
-21.183059895833335
-21.154921875
-21.182330729166665
-21.1380078125
-21.1637109375
-21.214622395833334
-21.227161458333335
-21.24432291666667
-21.268997395833335
-21.273059895833335
-21.268619791666666
-21.268307291666666
-21.3238671875
-21.376184895833333
-21.4042578125
-21.5183984375
-21.540182291666667
-21.566171875
-21.463580729166665
-21.2977734375
-21.339986979166667
-21.33453125
-21.376692708333334
-21.399518229166667
-21.454361979166666
-21.469895833333332
-21.489166666666666
-21.529427083333335
-21.555963541666667
-21.5807421875
-21.604830729166668
-21.593190104166666
-21.575247395833333
-21.58498697916667
-21.622513020833335
-21.711783854166665
-21.73537760416667
-21.614765625
-21.46563802083333
-21.439557291666667
-21.455989583333334
-21.4416796875
-21.4902734375
-21.536002604166665
-21.5384375
-21.522122395833332
-21.510703125
-21.4596484375
-21.4875390625
-21.542330729166668
-21.55296875
-21.551315104166665
-21.551692708333334
-21.518671875
-21.468528645833334
-21.478893229166665
-21.5046875
-21.536770833333332
-21.572161458333333
-21.50234375
-21.3501953125
-21.228671875
-21.224713541666667
-21.243997395833333
-21.237981770833333
-21.215481770833332
-21.273645833333333
-21.305364583333333
-21.27359375
-21.290364583333332
-21.302239583333332
-21.317747395833333
-21.325677083333332
-21.299700520833333
-21.288385416666667
-21.3080859375
-21.3298828125
-21.345182291666667
-21.359908854166665
-21.443723958333333
-21.3921875
-21.1984375
-21.077395833333334
-21.065338541666666
-21.053307291666666
-21.095065104166668
-21.10256510416667
-21.0908203125
-21.08986979166667
-21.062278645833334
-21.075364583333332
-21.084544270833334
-21.101119791666665
-21.1269140625
-21.1597265625
-21.179322916666667
-21.200143229166667
-21.212395833333332
-21.198138020833333
-21.210078125
-21.251276041666667
-21.261158854166666
-21.225481770833333
-21.0862109375
-20.980052083333334
-21.009231770833335
-21.03515625
-21.023385416666667
-21.029869791666666
-21.0148828125
-20.997486979166666
-20.9788671875
-20.970234375
-20.997291666666666
-21.0412109375
-21.0462890625
-21.054674479166668
-21.097994791666668
-21.103359375
-21.1116796875
-21.1230078125
-21.122434895833333
-21.163333333333334
-21.186380208333333
-21.212591145833333
-21.2590625
-21.275625
-21.1548046875
-20.967161458333333
-20.8987890625
-20.9524609375
-20.963151041666666
-21.0253125
-21.031354166666667
-21.0193359375
-21.030794270833333
-21.051041666666666
-21.050533854166666
-21.083385416666665
-21.10234375
-21.150768229166665
-21.161197916666666
-21.155364583333334
-21.178580729166665
-21.193776041666666
-21.229388020833333
-21.263190104166668
-21.2736328125
-21.2626171875
-21.242447916666666
-21.203359375
-21.204375
-21.074817708333335
-20.825325520833335
-20.740221354166668
-20.802174479166666
-20.8007421875
-20.8032421875
-20.827317708333332
-20.856979166666665
-20.836393229166667
-20.8236328125
-20.871796875
-20.895520833333332
-20.911145833333332
-20.970638020833334
-20.988489583333333
-20.981171875
-20.954348958333334
-20.96328125
-21.015247395833335
-21.031380208333335
-21.044674479166666
-21.095286458333334
-21.10609375
-21.129205729166667
-21.183502604166666
-21.157122395833333
-21.007291666666667
-20.876497395833333
-20.904166666666665
-20.953541666666666
-20.957747395833334
-21.005794270833334
-21.040716145833333
-21.049231770833334
-21.083059895833333
-21.105690104166666
-21.128151041666666
-21.152903645833334
-21.2093359375
-21.2112890625
-21.190833333333334
-21.189609375
-21.2053515625
-21.203684895833334
-21.246432291666668
-21.293424479166667
-21.34845052083333
-21.436145833333335
-21.476861979166667
-21.342604166666668
-21.191510416666667
-21.251809895833333
-21.2409375
-21.253346354166666
-21.286966145833333
-21.295455729166665
-21.30877604166667
-21.3196875
-21.3474609375
-21.365390625
-21.394283854166666
-21.445559895833334
-21.426692708333334
-21.3828515625
-21.4178515625
-21.4625
-21.453033854166666
-21.462630208333334
-21.494622395833332
-21.51934895833333
-21.5410546875
-21.424114583333335
-21.262473958333334
-21.26875
-21.323072916666668
-21.339388020833333
-21.375065104166666
-21.397747395833335
-21.414440104166665
-21.379635416666666
-21.381145833333335
-21.368463541666667
-21.441627604166666
-21.4981640625
-21.518893229166668
-21.51609375
-21.503177083333334
-21.527838541666668
-21.559505208333334
-21.583880208333333
-21.613932291666668
-21.657005208333334
-21.5858984375
-21.3908984375
-21.326901041666666
-21.322890625
-21.341927083333335
-21.369401041666666
-21.408841145833332
-21.496236979166667
-21.531875
-21.505598958333334
-21.476184895833335
-21.530520833333334
-21.550651041666665
-21.572526041666666
-21.591015625
-21.552252604166668
-21.4991796875
-21.514075520833334
-21.63265625
-21.659270833333334
-21.441184895833334
-21.3623046875
-21.38125
-21.392135416666665
-21.3962890625
-21.3532421875
-21.319127604166667
-21.331927083333333
-21.339075520833333
-21.364778645833333
-21.443294270833334
-21.46795572916667
-21.481783854166668
-21.519752604166666
-21.506015625
-21.4853515625
-21.513619791666667
-21.543359375
-21.556640625
-21.586263020833332
-21.611953125
-21.588619791666666
-21.457122395833334
-21.273268229166668
-21.211328125
-21.243372395833333
-21.274127604166665
-21.299609375
-21.2694921875
-21.276471354166667
-21.298958333333335
-21.262578125
-21.2830859375
-21.320598958333335
-21.333619791666667
-21.3516015625
-21.363333333333333
-21.374479166666667
-21.383020833333333
-21.399765625
-21.435065104166668
-21.49921875
-21.51828125
-21.53703125
-21.558255208333332
-21.553138020833334
-21.558020833333334
-21.5699609375
-21.422760416666666
-21.235572916666666
-21.22458333333333
-21.2633203125
-21.268971354166666
-21.237473958333332
-21.229127604166667
-21.220794270833334
-21.196328125
-21.209388020833334
-21.218411458333332
-21.2474609375
-21.2878125
-21.285716145833334
-21.2728515625
-21.302825520833334
-21.324114583333333
-21.322513020833334
-21.344388020833332
-21.326223958333333
-21.3584765625
-21.395924479166666
-21.409401041666666
-21.434661458333334
-21.4691015625
-21.488046875
-21.49529947916667
-21.530546875
-21.559375
-21.587057291666667
-21.5410546875
-21.344635416666666
-21.2494921875
-21.2533984375
-21.299283854166667
-21.314440104166668
-21.2680859375
-21.269752604166666
-21.2671875
-21.236184895833333
-21.2354296875
-21.256627604166667
-21.2990234375
-21.3483984375
-21.366744791666665
-21.377200520833334
-21.395846354166668
-21.362734375
-21.284778645833335
-21.301770833333332
-21.317799479166666
-21.2767578125
-21.230182291666665
-21.2828515625
-21.4091015625
-21.450859375
-21.451979166666668
-21.5062890625
-21.50393229166667
-21.472708333333333
-21.281940104166665
-21.040416666666665
-21.046888020833332
-21.065625
-20.965052083333333
-20.884674479166666
-20.813932291666667
-20.744830729166665
-20.7491015625
-20.859361979166668
-21.071458333333332
-21.220416666666665
-21.243177083333332
-21.17765625
-21.0703125
-20.9641796875
-20.79859375
-20.650794270833334
-20.576106770833334
-20.635625
-20.647669270833333
-20.622018229166667
-20.546940104166666
-20.464127604166666
-20.4432421875
-20.33966145833333
-20.1445703125
-20.128671875
-20.168854166666666
-20.226901041666668
-20.284752604166666
-20.360755208333334
-20.462552083333332
-20.4825390625
-20.491341145833335
-20.53
-20.572174479166666
-20.58625
-20.614895833333332
-20.5912890625
-20.480716145833334
-20.384973958333333
-20.3646484375
-20.40140625
-20.4325390625
-20.458658854166668
-20.456901041666665
-20.456184895833335
-20.447122395833333
-20.373828125
-20.211380208333335
-20.166731770833334
-20.188177083333333
-20.189205729166666
-20.187916666666666
-20.171328125
-20.240130208333333
-20.216888020833334
-20.13609375
-20.142200520833335
-20.141640625
-20.161796875
-20.157239583333332
-20.146432291666667
-20.151731770833333
-20.16619791666667
-20.1608984375
-20.199375
-20.219088541666668
-20.224127604166668
-20.245794270833333
-20.244986979166665
-20.271432291666667
-20.2541015625
-20.127526041666666
-19.99265625
-19.952526041666665
-19.980703125
-20.513190104166668
-20.889322916666668
-20.6348828125
-20.46111979166667
-20.466666666666665
-20.498763020833334
-20.52813802083333
-20.528567708333334
-20.535065104166666
-20.559283854166665
-20.599947916666668
-20.652356770833332
-20.686640625
-20.704322916666666
-20.70875
-20.728111979166666
-20.756901041666666
-20.82859375
-20.876940104166668
-20.917122395833335
-20.835572916666667
-20.6383203125
-20.594401041666668
-20.598385416666666
-20.553958333333334
-20.552890625
-20.562486979166668
-20.580846354166667
-20.567916666666665
-20.547200520833332
-20.538177083333334
-20.5721875
-20.5734765625
-20.574453125
-20.5633203125
-20.553723958333332
-20.56930989583333
-20.586809895833333
-20.589166666666667
-20.603463541666667
-20.642265625
-20.651106770833334
-20.686588541666666
-20.7601953125
-20.5993359375
-20.5209765625
-20.529361979166666
-20.513658854166668
-20.567591145833333
-20.5936328125
-20.604244791666666
-20.630078125
-20.6314453125
-20.689544270833334
-20.711471354166665
-20.729661458333332
-20.775494791666667
-20.823502604166666
-20.870950520833333
-21.006640625
-21.012565104166665
-21.060286458333334
-21.121927083333333
-21.115065104166668
-21.128216145833335
-21.183515625
-21.126705729166666
-20.926497395833334
-20.8322265625
-20.8917578125
-20.953190104166666
-20.976640625
-21.001575520833335
-21.051458333333333
-21.021953125
-20.989166666666666
-20.987005208333333
-21.115078125
-21.106640625
-21.108033854166667
-21.122018229166667
-21.122239583333332
-21.092604166666668
-21.097395833333334
-21.134635416666665
-21.1666796875
-21.193567708333333
-21.1978515625
-21.072135416666665
-20.8446484375
-20.781966145833334
-20.803346354166667
-20.813059895833334
-20.827799479166668
-20.851458333333333
-20.891223958333335
-20.883658854166665
-20.89548177083333
-20.863606770833332
-20.850924479166668
-20.896236979166666
-20.875546875
-20.8468359375
-20.835091145833335
-20.827057291666666
-20.8463671875
-20.847265625
-20.869140625
-20.705247395833332
-20.509466145833333
-20.494791666666668
-20.493255208333334
-20.52325520833333
-20.5516015625
-20.574166666666667
-20.577877604166666
-20.549921875
-20.54921875
-20.6102734375
-20.637604166666666
-20.6440234375
-20.6425390625
-20.631354166666668
-20.626666666666665
-20.655065104166667
-20.6555078125
-20.67462239583333
-20.757083333333334
-20.799322916666668
-20.821015625
-20.7505859375
-20.560065104166668
-20.45171875
-20.471536458333333
-20.531705729166667
-20.5293359375
-20.5292578125
-20.55373697916667
-20.550013020833333
-20.516640625
-20.49981770833333
-20.532096354166665
-20.566041666666667
-20.5889453125
-20.618802083333332
-20.635091145833332
-20.6623828125
-20.6566796875
-20.65484375
-20.656536458333335
-20.667252604166666
-20.673333333333332
-20.64666666666667
-20.6507421875
-20.6508203125
-20.5836328125
-20.415768229166666
-20.2921875
-20.293203125
-20.33709635416667
-20.37188802083333
-20.373294270833334
-20.379674479166667
-20.402799479166667
-20.390729166666667
-20.392122395833333
-20.406458333333333
-20.424140625
-20.435807291666666
-20.440208333333334
-20.453020833333333
-20.46975260416667
-20.47072916666667
-20.470169270833335
-20.479440104166667
-20.476705729166667
-20.511770833333333
-20.554973958333335
-20.553919270833333
-20.576953125
-20.63201822916667
-20.6619921875
-20.5941796875
-20.400677083333335
-20.239427083333332
-20.241822916666667
-20.2576953125
-20.2835546875
-20.27546875
-20.291263020833334
-20.3833984375
-20.4248046875
-20.3961328125
-20.375234375
-20.403177083333333
-20.415559895833333
-20.395950520833335
-20.457447916666666
-20.495130208333332
-20.465533854166665
-20.442174479166667
-20.432786458333332
-20.436653645833335
-20.460924479166668
-20.479244791666666
-20.464010416666667
-20.4544140625
-20.4597265625
-20.476809895833334
-20.4309375
-20.250286458333335
-20.1137109375
-20.106536458333334
-20.178333333333335
-20.2435546875
-20.2218359375
-20.247330729166666
-20.249830729166668
-20.229244791666666
-20.1965625
-20.169830729166666
-20.1615234375
-20.1894140625
-20.221783854166667
-20.270520833333332
-20.305963541666667
-20.317265625
-20.31
-20.313151041666668
-20.3365234375
-20.391861979166666
-20.4810546875
-20.50470052083333
-20.53903645833333
-20.586263020833332
-20.550520833333334
-20.3896875
-20.289830729166667
-20.278567708333334
-20.2923828125
-20.280442708333332
-20.252890625
-20.259088541666667
-20.260755208333332
-20.240377604166667
-20.262083333333333
-20.31234375
-20.345768229166666
-20.419921875
-20.46486979166667
-20.457565104166665
-20.467473958333333
-20.464713541666665
-20.4480078125
-20.44338541666667
-20.4527734375
-20.4555859375
-20.4533984375
-20.489466145833333
-20.42875
-20.2829296875
-20.154088541666667
-20.129166666666666
-20.154765625
-20.194947916666667
-20.18453125
-20.17578125
-20.19859375
-20.200260416666666
-20.158671875
-20.1462109375
-20.1833203125
-20.237356770833333
-20.250677083333333
-20.2315625
-20.2371484375
-20.2225
-20.2220703125
-20.2698046875
-20.295494791666666
-20.317526041666667
-20.360455729166667
-20.326796875
-20.141692708333334
-20.025455729166666
-20.01875
-20.009713541666667
-20.016328125
-20.0656640625
-20.0506640625
-19.980611979166667
-19.99123697916667
-20.02125
-20.055013020833332
-20.091575520833334
-20.0933203125
-20.083776041666667
-20.079505208333334
-20.0783984375
-20.065989583333334
-20.08171875
-20.12234375
-20.190677083333334
-20.221263020833334
-20.093658854166666
-19.895377604166665
-19.8191015625
-19.8560546875
-19.859322916666667
-19.849596354166668
-19.83673177083333
-19.845052083333332
-19.863984375
-20.339518229166668
-20.25876302083333
-20.452317708333332
-20.475546875
-20.51859375
-20.512447916666666
-20.527057291666665
-20.5425
-20.543125
-20.5173828125
-20.533294270833334
-20.565377604166667
-20.5852734375
-20.604791666666667
-20.615221354166668
-20.58673177083333
-20.396901041666666
-20.23875
-20.207682291666668
-20.218984375
-20.261380208333332
-20.243567708333334
-20.2240625
-20.265559895833334
-20.231731770833335
-20.226223958333332
-20.226080729166668
-20.20859375
-20.246705729166667
-20.259010416666666
-20.252734375
-20.28143229166667
-20.296028645833335
-20.291653645833332
-20.327877604166666
-20.343138020833333
-20.3448046875
-20.37203125
-20.396875
-20.420638020833334
-20.4567578125
-20.48203125
-20.47854166666667
-20.4786328125
-20.325104166666666
-20.107708333333335
-20.0566015625
-20.113919270833332
-20.137161458333335
-20.75408854166667
-20.565651041666666
-21.1190234375
-20.98140625
-20.939765625
-20.940546875
-20.986809895833332
-21.028268229166667
-21.078190104166666
-21.084075520833334
-21.0771875
-21.090377604166665
-21.092265625
-21.11375
-21.176184895833334
-21.1976953125
-21.22921875
-21.275989583333335
-21.3035546875
-21.322552083333335
-21.3767578125
-21.3791796875
-21.250221354166666
-21.042109375
-21.013385416666665
-21.111263020833334
-21.145651041666667
-21.160638020833332
-21.186119791666666
-21.255989583333335
-21.238059895833334
-21.2209765625
-21.23809895833333
-21.2946484375
-21.353828125
-21.417981770833332
-21.46609375
-21.49078125
-21.540651041666667
-21.531809895833334
-21.55859375
-21.601354166666667
-21.617330729166667
-21.652981770833332
-21.6864453125
-21.747994791666667
-21.80890625
-21.8772265625
-21.899713541666667
-21.813580729166667
-21.621575520833332
-21.59665364583333
-21.70901041666667
-21.751380208333334
-21.752486979166665
-21.738893229166667
-21.750208333333333
-21.72828125
-21.7328125
-21.7514453125
-21.767317708333334
-21.797044270833332
-21.808098958333332
-21.8353515625
-21.870651041666665
-21.941575520833332
-21.956979166666667
-21.915169270833335
-21.964609375
-22.034869791666665
-22.0315234375
-22.032903645833333
-22.0493359375
-22.011315104166666
-21.842213541666666
-21.79571614583333
-21.86984375
-21.95734375
-21.99796875
-21.985143229166667
-21.99703125
-22.014661458333332
-22.0289453125
-22.000833333333333
-22.003203125
-22.128294270833333
-22.172395833333333
-22.099739583333335
-22.096432291666666
-22.044908854166668
-22.0177734375
-22.022421875
-22.006458333333335
-21.995
-22.071888020833335
-22.143359375
-22.073255208333332
-21.8923046875
-21.834401041666666
-21.841158854166668
-21.8562890625
-21.801263020833332
-21.757278645833335
-21.796171875
-21.7824609375
-21.694401041666666
-21.588736979166665
-21.5559375
-21.610638020833335
-21.6053125
-21.60934895833333
-21.555013020833332
-21.5175
-21.4577734375
-21.345208333333332
-21.151536458333332
-21.0521484375
-21.063268229166667
-21.097291666666667
-21.095546875
-21.159388020833333
-21.1700390625
-21.1325
-21.124348958333332
-21.090403645833334
-21.0601171875
-21.0608203125
-21.074921875
-21.105872395833334
-21.126536458333334
-21.173971354166667
-21.216901041666667
-21.195325520833332
-21.2303125
-21.238919270833332
-21.131354166666668
-20.963606770833334
-20.887786458333334
-20.91583333333333
-20.918424479166667
-20.9415625
-20.918190104166666
-20.917643229166668
-20.923763020833334
-20.9000390625
-20.918098958333335
-20.9576953125
-20.939309895833333
-20.953893229166667
-20.9615625
-20.9863671875
-20.984049479166668
-20.974375
-20.988880208333335
-20.9966796875
-20.991263020833333
-20.88046875
-20.834114583333335
-20.794296875
-20.6282421875
-20.528307291666668
-20.5578125
-20.6152734375
-20.626588541666667
-20.622356770833335
-20.638893229166666
-20.708880208333333
-20.74709635416667
-20.769036458333332
-20.807734375
-20.8673828125
-20.919153645833333
-20.958151041666667
-20.99359375
-21.11140625
-21.122434895833333
-21.134440104166668
-21.176354166666666
-21.2520703125
-21.311536458333332
-21.428815104166667
-21.522135416666668
-21.585091145833335
-21.636354166666667
-21.6809765625
-21.46486979166667
-21.495807291666665
-21.597604166666667
-21.669765625
-21.675377604166666
-21.673919270833334
-21.726640625
-21.788932291666665
-21.82765625
-21.844661458333334
-21.874192708333332
-21.951783854166667
-22.0025390625
-22.056510416666665
-22.065924479166668
-22.100755208333332
-22.108776041666665
-22.099114583333332
-22.148203125
-22.219479166666666
-22.24221354166667
-22.239505208333334
-22.246015625
-22.2659375
-22.254466145833334
-22.1251171875
-22.002864583333334
-21.980872395833334
-21.953723958333335
-21.953346354166666
-21.931888020833334
-21.917109375
-21.921184895833335
-21.889518229166665
-21.85626302083333
-21.848880208333334
-21.858671875
-21.866080729166665
-21.855130208333332
-21.874947916666667
-21.898815104166665
-21.893489583333334
-21.884205729166666
-21.8734375
-21.907109375
-21.935078125
-21.947994791666666
-21.966966145833332
-21.8821484375
-21.72381510416667
-21.646015625
-21.634596354166668
-21.6591796875
-21.694401041666666
-21.714388020833333
-21.7712890625
-21.753971354166666
-21.763541666666665
-21.832526041666668
-21.863880208333335
-21.851979166666666
-21.870026041666666
-21.8547265625
-21.8777734375
-21.898893229166667
-21.920729166666668
-21.930299479166667
-21.96703125
-21.978072916666665
-22.0159765625
-22.005859375
-21.851263020833333
-21.586041666666667
-21.45217447916667
-21.446028645833334
-21.484765625
-21.530286458333332
-21.5955859375
-21.64859375
-21.700325520833335
-21.700794270833335
-21.674856770833333
-21.72734375
-21.760364583333335
-21.770911458333334
-21.792239583333334
-21.830065104166668
-21.89953125
-22.0178515625
-22.377278645833332
-22.406861979166667
-22.518854166666667
-22.0403515625
-22.176953125
-21.5740234375
-21.6669921875
-21.512981770833335
-21.321536458333334
-21.306979166666668
-21.376171875
-21.39515625
-21.390013020833333
-21.384270833333332
-21.40231770833333
-21.402109375
-21.42673177083333
-21.465989583333332
-21.503294270833333
-21.526028645833332
-21.566822916666666
-21.5552734375
-21.511640625
-21.508020833333333
-21.48614583333333
-21.44610677083333
-21.460065104166667
-21.437174479166668
-21.445846354166665
-21.475963541666665
-21.516822916666666
-21.5355859375
-21.501901041666667
-21.355143229166668
-21.223723958333334
-21.28302083333333
-21.27671875
-21.2749609375
-21.27248697916667
-21.277630208333335
-21.2385546875
-21.2241015625
-21.22638020833333
-21.274361979166667
-21.288450520833333
-21.281028645833334
-21.32147135416667
-21.3465625
-21.299713541666666
-21.2460546875
-21.264596354166667
-21.321575520833335
-21.370677083333334
-21.381692708333333
-21.373776041666666
-21.384309895833333
-21.3441015625
-21.3340234375
-21.316888020833332
-21.18640625
-21.0611328125
-21.049908854166667
-21.031731770833332
-21.042604166666667
-21.033450520833334
-21.003958333333333
-21.009361979166666
-20.976575520833332
-20.942604166666666
-20.973346354166665
-20.998385416666668
-21.018177083333335
-21.033059895833333
-21.028125
-21.084322916666668
-21.124388020833333
-21.117096354166666
-21.061809895833335
-21.0009375
-21.0573046875
-21.18875
-21.2587109375
-21.304114583333334
-21.290546875
-21.2000390625
-21.056041666666665
-21.03671875
-21.0730859375
-21.085364583333334
-21.0892578125
-21.1067578125
-21.0824609375
-21.045520833333335
-21.093619791666665
-21.119635416666668
-21.159661458333332
-21.224973958333333
-21.28729166666667
-21.276861979166668
-21.255364583333332
-21.228854166666668
-21.216966145833332
-21.28
-21.308333333333334
-21.301354166666666
-21.32440104166667
-21.340768229166667
-21.294375
-21.1095703125
-20.982877604166667
-21.00875
-21.017838541666666
-20.98765625
-20.9906640625
-21.038216145833335
-21.056432291666667
-21.050247395833335
-21.044830729166666
-21.057005208333333
-21.112161458333333
-21.152239583333333
-21.197330729166666
-21.252018229166666
-21.26296875
-21.222356770833333
-21.187330729166668
-21.20526041666667
-21.211809895833333
-21.2106640625
-21.271341145833333
-21.160052083333333
-21.034739583333334
-21.054244791666665
-21.0983984375
-21.1309375
-21.079244791666667
-20.9955078125
-20.938359375
-20.945260416666667
-20.950065104166665
-20.9589453125
-20.977734375
-20.997513020833335
-21.0323046875
-21.06453125
-21.082526041666668
-21.080403645833332
-21.093463541666665
-21.106080729166667
-21.100052083333335
-21.111588541666666
-21.077044270833333
-20.921497395833335
-20.724713541666667
-20.678984375
-20.7059375
-20.7128125
-20.716705729166666
-20.733528645833335
-20.753541666666667
-20.767682291666667
-20.7730859375
-20.756901041666666
-20.761341145833335
-20.78578125
-20.801184895833334
-20.83625
-20.838880208333332
-20.807578125
-20.798815104166668
-20.817734375
-20.851927083333333
-20.864166666666666
-20.87795572916667
-20.877057291666667
-20.772291666666668
-20.599908854166667
-20.5421875
-20.558997395833334
-20.610481770833335
-20.603111979166666
-20.598671875
-20.629583333333333
-20.6396875
-20.612734375
-20.5764453125
-20.596041666666668
-20.5997265625
-20.593997395833334
-20.60296875
-20.6395703125
-20.647200520833334
-20.648177083333334
-20.640872395833334
-20.663020833333334
-20.690872395833335
-20.718033854166666
-20.731940104166668
-20.793541666666666
-20.8063671875
-20.6392578125
-20.419700520833334
-20.352421875
-20.4212109375
-20.390559895833334
-20.4055859375
-20.445755208333335
-20.47458333333333
-20.527122395833334
-20.5955078125
-20.631966145833335
-20.627109375
-20.618567708333334
-20.620638020833333
-20.6296484375
-20.638932291666666
-20.660390625
-20.672330729166667
-20.670690104166667
-20.711458333333333
-20.765716145833334
-20.738658854166665
-20.584973958333332
-20.40118489583333
-20.3665234375
-20.388033854166668
-20.415651041666667
-20.4174609375
-20.391653645833333
-20.3951953125
-20.416705729166665
-20.3861328125
-20.389440104166667
-20.422578125
-20.446783854166668
-20.473411458333334
-20.485559895833333
-20.50328125
-20.513932291666666
-20.519127604166666
-20.530143229166665
-20.5346484375
-20.54921875
-20.540755208333334
-20.5424609375
-20.544817708333333
-20.5515234375
-20.533841145833332
-20.3633984375
-20.233541666666667
-20.2444140625
-20.2980859375
-20.307005208333333
-20.351184895833335
-20.420299479166665
-20.45671875
-20.424453125
-20.417005208333332
-20.450846354166668
-20.4778515625
-20.46140625
-20.449765625
-20.471380208333333
-20.474049479166666
-20.461015625
-20.47859375
-20.47555989583333
-20.507578125
-20.541770833333334
-20.525052083333332
-20.547994791666667
-20.383138020833332
-20.241901041666665
-20.251328125
-20.309934895833333
-20.327252604166667
-20.3163671875
-20.325911458333334
-20.331067708333332
-20.299817708333332
-20.295520833333335
-20.3143359375
-20.3321484375
-20.393346354166667
-20.411510416666665
-20.387903645833333
-20.403203125
-20.412265625
-20.406471354166666
-20.4198046875
-20.470377604166668
-20.50703125
-20.562578125
-20.58078125
-20.600833333333334
-20.555208333333333
-20.376276041666667
-20.2812890625
-20.3126953125
-20.365625
-20.420247395833332
-20.475690104166667
-20.500416666666666
-20.494453125
-20.464479166666667
-20.4907421875
-20.523294270833333
-20.567643229166666
-20.579765625
-20.584674479166665
-20.544296875
-20.514518229166665
-20.495065104166667
-20.521015625
-20.539674479166667
-20.522630208333332
-20.517877604166667
-20.571901041666667
-20.5457421875
-20.3732421875
-20.232903645833332
-20.20765625
-20.2223046875
-20.253359375
-20.281666666666666
-20.301497395833334
-20.305286458333335
-20.262057291666668
-20.22140625
-20.226315104166666
-20.260208333333335
-20.286848958333334
-20.29640625
-20.340013020833332
-20.365546875
-20.348098958333335
-20.339674479166668
-20.349921875
-20.349505208333333
-20.363411458333335
-20.409986979166668
-20.449361979166667
-20.43703125
-20.346197916666668
-20.12990885416667
-20.058151041666665
-20.084309895833332
-20.100872395833335
-20.708736979166666
-20.450065104166665
-20.852174479166667
-20.77453125
-20.872669270833335
-20.874270833333334
-20.915559895833333
-20.931796875
-20.936171875
-20.965611979166667
-20.974557291666667
-20.933854166666666
-20.935208333333332
-20.9396875
-20.938333333333333
-20.983489583333334
-21.002278645833332
-21.050208333333334
-21.06833333333333
-21.040208333333332
-20.881419270833334
-20.718515625
-20.706197916666667
-20.734088541666665
-20.746028645833334
-20.737916666666667
-20.75485677083333
-20.772239583333334
-20.765247395833335
-20.738723958333335
-20.77341145833333
-20.829010416666666
-20.872903645833333
-20.880403645833333
-20.8712890625
-20.867747395833334
-20.848229166666666
-20.860078125
-20.882291666666667
-20.915325520833335
-20.943072916666665
-20.950885416666665
-20.9460546875
-20.9714453125
-20.980403645833334
-20.713411458333333
-20.641197916666666
-20.6742578125
-20.710846354166666
-20.724296875
-20.791106770833334
-20.803919270833333
-20.8205859375
-20.868893229166666
-20.911536458333334
-20.922955729166667
-20.908802083333335
-20.926875
-20.980872395833334
-20.9583203125
-20.937421875
-20.972408854166666
-21.0038671875
-21.003333333333334
-21.084895833333334
-21.149466145833333
-21.1822265625
-21.237786458333332
-21.306796875
-21.314700520833334
-21.192161458333334
-21.04234375
-20.99734375
-21.031783854166665
-21.071041666666666
-21.058580729166668
-21.047135416666666
-21.072903645833332
-21.0716015625
-21.021848958333333
-21.013984375
-21.037669270833334
-21.068736979166665
-21.085559895833335
-21.101783854166666
-21.115703125
-21.118359375
-21.119466145833332
-21.135260416666668
-21.16984375
-21.189895833333335
-21.223372395833334
-21.262213541666668
-21.2233984375
-21.083671875
-20.9776953125
-20.980859375
-21.0359765625
-21.068697916666668
-21.049479166666668
-21.076575520833334
-21.1126171875
-21.0778515625
-21.054192708333332
-21.0716796875
-21.095182291666667
-21.125052083333333
-21.154192708333333
-21.176041666666666
-21.162760416666668
-21.202018229166665
-21.2221484375
-21.221184895833332
-21.2223046875
-21.232903645833332
-21.239010416666666
-21.246341145833334
-21.2855859375
-21.268997395833335
-21.122265625
-20.957421875
-20.956328125
-21.03296875
-21.1009375
-21.1279296875
-21.142890625
-21.150911458333333
-21.109388020833332
-21.066653645833334
-21.057513020833333
-21.1241015625
-21.16234375
-21.1872265625
-21.23125
-21.239583333333332
-21.219856770833335
-21.209635416666668
-21.223919270833335
-21.235950520833335
-21.269674479166667
-21.330625
-21.356341145833333
-21.373255208333333
-21.4111328125
-21.458723958333334
-21.4696484375
-21.342552083333334
-21.156536458333335
-21.125598958333335
-21.1866796875
-21.191770833333333
-21.184049479166667
-21.185494791666667
-21.186966145833335
-21.17092447916667
-21.181276041666667
-21.224283854166668
-21.2459375
-21.269049479166668
-21.300442708333332
-21.3344140625
-21.3528125
-21.3469140625
-21.339583333333334
-21.352369791666668
-21.3678515625
-21.373489583333335
-21.395377604166665
-21.417044270833333
-21.445546875
-21.474765625
-21.485143229166667
-21.480833333333333
-21.364830729166666
-21.225950520833333
-21.217565104166667
-21.294283854166668
-21.334479166666668
-21.330013020833334
-21.325182291666668
-21.353919270833334
-21.336692708333334
-21.3515234375
-21.398502604166666
-21.443567708333333
-21.486705729166665
-21.523893229166667
-21.552825520833334
-21.5751953125
-21.5769140625
-21.608059895833332
-21.6425
-21.655625
-21.669088541666667
-21.670078125
-21.643411458333333
-21.673815104166668
-21.735572916666666
